{
  "cviceni": {
    "version": {
      "global": "<%= version %>",
      "content": 1
    },
    "katalog": [
      "test"
    ],
    "language": "cs",
    "slug": "jaky-pribeh-vypraveji-kufry",
    "nazev": "Jaký příběh vyprávějí kufry?",
    "autor": [
      "Václav Sixta"
    ],
    "casovaOsa": {
      "roky": [
        2017
      ],
      "epocha": {
        "svetova": [
          "Lidstvo na měnící se planetě"
        ]
      }
    },
    "klicovaSlova": [
      "holokaust", "vzpomínková kultura", "muzeum", "vztah k minulosti", "tvoříme"
    ],
    "anotace": {
      "ucitel": "Cvičení začíná fotografií ze stálé expozice Muzea II. světové války v Gdaňsku, kde jsou vystaveny kufry z Osvětimi. Žáci na základě práce se sérií fotografií rekonstruují příběh kufrů, které patřily obětem holokaustu a zamýšlejí se nad tím, proč se právě tyto na první pohled obyčejné předměty staly jedním z význačných symbolů holokaustu. Kromě samotného příběhu předmětu tematizuje cvičení způsoby připomínání holokaustu a principy fungování muzejních expozic. Žáci tak mohou lépe porozumět tomu, jak současné muzejní instituce fungují.",
      "verejna": "Jak se z obyčejného předmětu stane důležitý symbol? Pokuste se vypátrat osud cestovních kufrů, které na první pohled nejsou ničím význačné."
    },
    "obtiznost": "střední",
    "trvani": 20,
    "funkce": [
      "lupa",
      "cteni",
      "text",
      "svg",
      "znacky",
      "razeni"
    ],
    "pdf": {
      "doporucenyPostup": "jaky-pribeh-vypraveji-kufry.pdf"
    },
    "uvodniObrazek": "jaky-pribeh-vypraveji-kufry/pic-00-1280w.jpg",
    "id": 102
  },
  "slajd": [
    {
      "zadani": {
        "hlavni": "Prohlédněte si fotografii.",
        "rozsirujici": ""
      },
      "napoveda": {
        "aktivity": [
          "lupa"
        ],
        "text": "Při kliknutí levým tlačítkem do obrazu lupa přiblíží část obrazu ve výřezu."
      },
      "prameny": [
        "jaky-pribeh-vypraveji-kufry/pic-00-1280w.jpg"
      ],
      "popisky": [
        "Muzeum II. světové války v Gdaňsku (Polsko) v roce 2017. Stěna z kufrů je součástí architektury expozice. Pouze dva kufry ve vitrínách jsou exponáty. Foto Wojciech Stróżyk. Zdroj: Alamy Stock Photo"
      ]
    },
    {
      "zadani": {
        "hlavni": "Označte důležité prvky na fotografii a popište je.",
        "rozsirujici": ""
      },
      "napoveda": {
        "aktivity": [
          "svg"
        ],
        "text": "Kliknutím na snímek levým tlačítkem myši označujete bod. Nakliknutím na bod pravým tlačítkem otevřete menu s nabídkou úkonů: změnit barvu bodu, (T) doplnit textový komentář, (X) smazat nakliknutý objekt."
      },
      "svg": {
        "soubory": [
          {
            "id": "svg-1",
            "soubor": "jaky-pribeh-vypraveji-kufry/pic-00-1280w.jpg",
            "funkce": [
              "text",
              "znacky"
            ]
          }
        ]
      },
      "popisky": [
        "Muzeum II. světové války v Gdaňsku (Polsko) v roce 2017. Stěna z kufrů je součástí architektury expozice. Pouze dva kufry ve vitrínách jsou exponáty. Foto Wojciech Stróżyk. Zdroj: Alamy Stock Photo"
      ]
    },
    {
      "zadani": {
        "hlavni": "Prohlédněte si další fotografie a přečtěte si popisky.",
        "rozsirujici": ""
      },
      "napoveda": {
        "aktivity": [
          "lupa"
        ],
        "text": "Při kliknutí levým tlačítkem do obrazu lupa přiblíží část obrazu ve výřezu."
      },
      "prameny": [
        "jaky-pribeh-vypraveji-kufry/pic-01-640w.jpg",
        "jaky-pribeh-vypraveji-kufry/pic-02-640w.jpg",
        "jaky-pribeh-vypraveji-kufry/pic-03-640w.jpg",
        "jaky-pribeh-vypraveji-kufry/pic-04-640w.jpg"
      ],
      "popisky": [
        "Pohled do expozice v Osvětimi. Foto Libor Sojka. Zdroj: ČTK",
        "Prostor koncentračního tábora Osvětim. Zdroj: Yad Vashem.org",
        "Židé nastupují do transportu do Osvětimi, Nizozemsko. Zdroj: Yad Vashem.org",
        "Pohled do první expozice, která vznikla v Osvětimi. Zdroj: Yad Vashem.org"
      ]
    },
    {
      "class": [ "half-slide-previous" ],
      "zadani": {
        "hlavni": "Označte na fotografii alespoň jeden prvek, podle něhož byste mohli přibližně určit dobu jejího vzniku. Označené prvky popište.",
        "rozsirujici": ""
      },
      "napoveda": {
        "aktivity": [
          "svg"
        ],
        "text": "Kliknutím na snímek levým tlačítkem myši označujete bod. Nakliknutím na bod pravým tlačítkem otevřete menu s nabídkou úkonů: změnit barvu bodu, (T) doplnit textový komentář, (X) smazat nakliknutý objekt."
      },
      "svg": {
        "soubory": [
          {
            "id": "svg-2",
            "soubor": "jaky-pribeh-vypraveji-kufry/pic-01-1024w.jpg",
            "funkce": [
              "text",
              "znacky"
            ]
          }
        ]
      },
      "popisky": [
        "Pohled do expozice v Osvětimi. Foto Libor Sojka. Zdroj: ČTK"
      ]
    },
    {
      "class": [ "half-slide-active", "half-slide-previous" ],
      "zadani": {
        "hlavni": "Označte na fotografii alespoň jeden prvek, podle něhož byste mohli přibližně určit dobu jejího vzniku. Označené prvky popište.",
        "rozsirujici": ""
      },
      "napoveda": {
        "aktivity": [
          "svg"
        ],
        "text": "Kliknutím na snímek levým tlačítkem myši označujete bod. Nakliknutím na bod pravým tlačítkem otevřete menu s nabídkou úkonů: změnit barvu bodu, (T) doplnit textový komentář, (X) smazat nakliknutý objekt."
      },
      "svg": {
        "soubory": [
          {
            "id": "svg-3",
            "soubor": "jaky-pribeh-vypraveji-kufry/pic-02-1024w.jpg",
            "funkce": [
              "text",
              "znacky"
            ]
          }
        ]
      },
      "popisky": [
        "Prostor koncentračního tábora Osvětim. Zdroj: Yad Vashem.org"
      ]
    },
    {
      "class": [ "half-slide-active", "half-slide-previous" ],
      "zadani": {
        "hlavni": "Označte na fotografii alespoň jeden prvek, podle něhož byste mohli přibližně určit dobu jejího vzniku. Označené prvky popište.",
        "rozsirujici": ""
      },
      "napoveda": {
        "aktivity": [
          "svg"
        ],
        "text": "Kliknutím na snímek levým tlačítkem myši označujete bod. Nakliknutím na bod pravým tlačítkem otevřete menu s nabídkou úkonů: změnit barvu bodu, (T) doplnit textový komentář, (X) smazat nakliknutý objekt."
      },
      "svg": {
        "soubory": [
          {
            "id": "svg-4",
            "soubor": "jaky-pribeh-vypraveji-kufry/pic-03-1024w.jpg",
            "funkce": [
              "text",
              "znacky"
            ]
          }
        ]
      },
      "popisky": [
        "Židé nastupují do transportu do Osvětimi, Nizozemsko. Zdroj: Yad Vashem.org"
      ]
    },
    {
      "class": [ "half-slide-active", "half-slide-previous" ],
      "zadani": {
        "hlavni": "Označte na fotografii alespoň jeden prvek, podle něhož byste mohli přibližně určit dobu jejího vzniku. Označené prvky popište.",
        "rozsirujici": ""
      },
      "napoveda": {
        "aktivity": [
          "svg"
        ],
        "text": "Kliknutím na snímek levým tlačítkem myši označujete bod. Nakliknutím na bod pravým tlačítkem otevřete menu s nabídkou úkonů: změnit barvu bodu, (T) doplnit textový komentář, (X) smazat nakliknutý objekt."
      },
      "svg": {
        "soubory": [
          {
            "id": "svg-5",
            "soubor": "jaky-pribeh-vypraveji-kufry/pic-00-1024w.jpg",
            "funkce": [
              "text",
              "znacky"
            ]
          }
        ]
      },
      "popisky": [
        "Muzeum II. světové války v Gdaňsku (Polsko). Foto Wojciech Stróżyk. Zdroj: Alamy Stock Photo"
      ]
    },
    {
      "class": [ "half-slide-active" ],
      "zadani": {
        "hlavni": "Označte na fotografii alespoň jeden prvek, podle něhož byste mohli přibližně určit dobu jejího vzniku. Označené prvky popište.",
        "rozsirujici": ""
      },
      "napoveda": {
        "aktivity": [
          "svg"
        ],
        "text": "Kliknutím na snímek levým tlačítkem myši označujete bod. Nakliknutím na bod pravým tlačítkem otevřete menu s nabídkou úkonů: změnit barvu bodu, (T) doplnit textový komentář, (X) smazat nakliknutý objekt."
      },
      "svg": {
        "soubory": [
          {
            "id": "svg-6",
            "soubor": "jaky-pribeh-vypraveji-kufry/pic-04-1024w.jpg",
            "funkce": [
              "text",
              "znacky"
            ]
          }
        ]
      },
      "popisky": [
        "Pohled do první expozice, která vznikla v Osvětimi. Zdroj: Yad Vashem.org"
      ]
    },
    {
      "zadani": {
        "hlavni": "Uspořádejte fotografie.",
        "rozsirujici": "Seřaďte situace od nejstarší po nejmladší."
      },
      "napoveda": {
        "aktivity": ["razeni", "text"],
        "text": "Kliknutím na fotografie a tahem myši přesuňte fotografii na požadovanou pozici mezi ostatní položky."
      },
      "razeni": {
        "id": "razeni-1",
        "typ": "horizontalni",
        "objekty": [
          {
            "medium": "svg",
            "objekt": {
              "soubor": "jaky-pribeh-vypraveji-kufry/pic-01-640w.jpg",
              "duplikovat": ["svg-2"]
            },
            "popisek": "Pohled do expozice v Osvětimi. Zdroj: ČTK",
            "spravnaOdpoved": "4"
          },
          {
            "medium": "svg",
            "objekt": {
              "soubor": "jaky-pribeh-vypraveji-kufry/pic-02-640w.jpg",
              "duplikovat": ["svg-3"]
            },
            "popisek": "Prostor koncentračního tábora Osvětim. Zdroj: Yad Vashem.org",
            "spravnaOdpoved": "2"
          },
          {
            "medium": "svg",
            "objekt": {
              "soubor": "jaky-pribeh-vypraveji-kufry/pic-03-640w.jpg",
              "duplikovat": ["svg-4"]
            },
            "popisek": "Židé nastupují do transportu do Osvětimi, Nizozemsko. Zdroj: Yad Vashem.org",
            "spravnaOdpoved": "1"
          },
          {
            "medium": "svg",
            "objekt": {
              "soubor": "jaky-pribeh-vypraveji-kufry/pic-00-640w.jpg",
              "duplikovat": ["svg-5"]
            },
            "popisek": "Muzeum II. světové války v Gdaňsku (Polsko). Zdroj: Alamy Stock Photo",
            "spravnaOdpoved": "5"
          },
          {
            "medium": "svg",
            "objekt": {
              "soubor": "jaky-pribeh-vypraveji-kufry/pic-04-640w.jpg",
              "duplikovat": ["svg-6"]
            },
            "popisek": "Pohled do první expozice, která vznikla v Osvětimi. Zdroj: Alamy Stock Photo",
            "spravnaOdpoved": "3"
          }
        ],
        "zpetnaVazba": [
          {
            "podminka": 2,
            "text": "Opravdu? My jsme fotografie uspořádali odlišně.",
            "barva": "color-red"
          },
          {
            "podminka": 1,
            "text": "Jednu fotografii bychom uspořádali odlišně.",
            "barva": "color-orange"
          },
          {
            "podminka": 0,
            "text": "Výtečně. Uspořádali jsme fotografie stejně.",
            "barva": "color-green"
          }
        ]
      }
    },
    {
      "zadani": {
        "hlavni": "Vyprávějte příběh kufrů.",
        "rozsirujici": "Do příběhu zahrňte vámi označené body."
      },
      "napoveda": {
        "aktivity": [
          "text"
        ],
        "text": "Do boxu pro text zapisujete odpověď na otázku, nebo jiný komentář (dle zadání)."
      },
      "uzivatelskyText": {
        "otazky": [
          {
            "id": "otazka-1",
            "zadani": "",
            "instrukce": "Příběh kufrů",
            "minDelka": 2,
            "maxDelka": 1500
          }
        ]
      }
    }
  ]
}
